1524051514
s:324:"HTTP/1.1 200 OK
Server: nginx
Date: Wed, 18 Apr 2018 09:37:58 GMT
Content-Type: application/json; charset=utf-8
Content-Length: 15
X-XSS-Protection: 1; mode=block
X-Content-Type-Options: nosniff
Access-Control-Allow-Origin: *
X-UA-Compatible: IE=Edge,chrome=1
Strict-Transport-Security: max-age=0

{"services":[]}";