DATETIME,ERRORLEVEL,TAG,VALUE,LINE,FILE
"2018-04-16 16:16:58",INFO,--,"Starting installation.",184,"C:\xampp\htdocs\prestaproj3\modules\payplug\payplug.php"
"2018-04-16 16:16:59",INFO,--,"Order state creation starting.",393,"C:\xampp\htdocs\prestaproj3\modules\payplug\payplug.php"
"2018-04-16 16:16:59",INFO,--,"Order state: paid",475,"C:\xampp\htdocs\prestaproj3\modules\payplug\payplug.php"
"2018-04-16 16:16:59",INFO,--,"Live context.",478,"C:\xampp\htdocs\prestaproj3\modules\payplug\payplug.php"
"2018-04-16 16:16:59",INFO,--,"Creating new order state.",499,"C:\xampp\htdocs\prestaproj3\modules\payplug\payplug.php"
"2018-04-16 16:16:59",INFO,--,"ID: 14",525,"C:\xampp\htdocs\prestaproj3\modules\payplug\payplug.php"
"2018-04-16 16:16:59",INFO,--,"Test context.",530,"C:\xampp\htdocs\prestaproj3\modules\payplug\payplug.php"
"2018-04-16 16:16:59",INFO,--,"Creating new order state.",537,"C:\xampp\htdocs\prestaproj3\modules\payplug\payplug.php"
"2018-04-16 16:16:59",INFO,--,"ID: 14",563,"C:\xampp\htdocs\prestaproj3\modules\payplug\payplug.php"
"2018-04-16 16:16:59",INFO,--,"Order state: refund",475,"C:\xampp\htdocs\prestaproj3\modules\payplug\payplug.php"
"2018-04-16 16:16:59",INFO,--,"Live context.",478,"C:\xampp\htdocs\prestaproj3\modules\payplug\payplug.php"
"2018-04-16 16:16:59",INFO,--,"Creating new order state.",499,"C:\xampp\htdocs\prestaproj3\modules\payplug\payplug.php"
"2018-04-16 16:16:59",INFO,--,"ID: 16",525,"C:\xampp\htdocs\prestaproj3\modules\payplug\payplug.php"
"2018-04-16 16:16:59",INFO,--,"Test context.",530,"C:\xampp\htdocs\prestaproj3\modules\payplug\payplug.php"
"2018-04-16 16:16:59",INFO,--,"Creating new order state.",537,"C:\xampp\htdocs\prestaproj3\modules\payplug\payplug.php"
"2018-04-16 16:16:59",INFO,--,"ID: 16",563,"C:\xampp\htdocs\prestaproj3\modules\payplug\payplug.php"
"2018-04-16 16:16:59",INFO,--,"Order state: pending",475,"C:\xampp\htdocs\prestaproj3\modules\payplug\payplug.php"
"2018-04-16 16:16:59",INFO,--,"Live context.",478,"C:\xampp\htdocs\prestaproj3\modules\payplug\payplug.php"
"2018-04-16 16:16:59",INFO,--,"Creating new order state.",499,"C:\xampp\htdocs\prestaproj3\modules\payplug\payplug.php"
"2018-04-16 16:16:59",INFO,--,"ID: 18",525,"C:\xampp\htdocs\prestaproj3\modules\payplug\payplug.php"
"2018-04-16 16:16:59",INFO,--,"Test context.",530,"C:\xampp\htdocs\prestaproj3\modules\payplug\payplug.php"
"2018-04-16 16:16:59",INFO,--,"Creating new order state.",537,"C:\xampp\htdocs\prestaproj3\modules\payplug\payplug.php"
"2018-04-16 16:16:59",INFO,--,"ID: 18",563,"C:\xampp\htdocs\prestaproj3\modules\payplug\payplug.php"
"2018-04-16 16:16:59",INFO,--,"Order state: error",475,"C:\xampp\htdocs\prestaproj3\modules\payplug\payplug.php"
"2018-04-16 16:16:59",INFO,--,"Live context.",478,"C:\xampp\htdocs\prestaproj3\modules\payplug\payplug.php"
"2018-04-16 16:16:59",INFO,--,"Creating new order state.",499,"C:\xampp\htdocs\prestaproj3\modules\payplug\payplug.php"
"2018-04-16 16:16:59",INFO,--,"ID: 20",525,"C:\xampp\htdocs\prestaproj3\modules\payplug\payplug.php"
"2018-04-16 16:16:59",INFO,--,"Test context.",530,"C:\xampp\htdocs\prestaproj3\modules\payplug\payplug.php"
"2018-04-16 16:16:59",INFO,--,"Creating new order state.",537,"C:\xampp\htdocs\prestaproj3\modules\payplug\payplug.php"
"2018-04-16 16:16:59",INFO,--,"ID: 20",563,"C:\xampp\htdocs\prestaproj3\modules\payplug\payplug.php"
"2018-04-16 16:16:59",INFO,--,"Order state creation ended.",567,"C:\xampp\htdocs\prestaproj3\modules\payplug\payplug.php"
"2018-04-16 16:16:59",INFO,--,"Installation SQL Starting.",608,"C:\xampp\htdocs\prestaproj3\modules\payplug\payplug.php"
"2018-04-16 16:16:59",INFO,--,"Installation SQL ended.",664,"C:\xampp\htdocs\prestaproj3\modules\payplug\payplug.php"
"2018-04-16 16:16:59",INFO,--,"Installation complete.",225,"C:\xampp\htdocs\prestaproj3\modules\payplug\payplug.php"
